Data Science Series - Exploratory Data Analysis
…
Read the metadata if the data is not yours

Think about the analysis plan led by questions

Make sure your hypothesis-driven studies are clearly stated

Load your data: Example 1

a. Fuel economy data from 1999 to 2008 for 38 popular models of cars. The subset dataset from EPA. Full data available [here](https://fueleconomy.gov)

# Load data
data("mpg")
mpg

# A tibble: 234 × 11
   manufacturer model      displ  year   cyl trans drv     cty   hwy fl    class
   <chr>        <chr>      <dbl> <int> <int> <chr> <chr> <int> <int> <chr> <chr>
 1 audi         a4           1.8  1999     4 auto… f        18    29 p     comp…
 2 audi         a4           1.8  1999     4 manu… f        21    29 p     comp…
 3 audi         a4           2    2008     4 manu… f        20    31 p     comp…
 4 audi         a4           2    2008     4 auto… f        21    30 p     comp…
 5 audi         a4           2.8  1999     6 auto… f        16    26 p     comp…
 6 audi         a4           2.8  1999     6 manu… f        18    26 p     comp…
 7 audi         a4           3.1  2008     6 auto… f        18    27 p     comp…
 8 audi         a4 quattro   1.8  1999     4 manu… 4        18    26 p     comp…
 9 audi         a4 quattro   1.8  1999     4 auto… 4        16    25 p     comp…
10 audi         a4 quattro   2    2008     4 manu… 4        20    28 p     comp…
# … with 224 more rows
# ℹ Use `print(n = ...)` to see more rows
…
## Creating a tibble from preloaded dataset
data(iris)
head(iris)

  Sepal.Length Sepal.Width Petal.Length Petal.Width Species
1          5.1         3.5          1.4         0.2  setosa
2          4.9         3.0          1.4         0.2  setosa
3          4.7         3.2          1.3         0.2  setosa
4          4.6         3.1          1.5         0.2  setosa
5          5.0         3.6          1.4         0.2  setosa
6          5.4         3.9          1.7         0.4  setosa

as_tibble(iris)

# A tibble: 150 × 5
   Sepal.Length Sepal.Width Petal.Length Petal.Width Species
          <dbl>       <dbl>        <dbl>       <dbl> <fct>  
 1          5.1         3.5          1.4         0.2 setosa 
 2          4.9         3            1.4         0.2 setosa 
 3          4.7         3.2          1.3         0.2 setosa 
 4          4.6         3.1          1.5         0.2 setosa 
 5          5           3.6          1.4         0.2 setosa 
 6          5.4         3.9          1.7         0.4 setosa 
 7          4.6         3.4          1.4         0.3 setosa 
 8          5           3.4          1.5         0.2 setosa 
 9          4.4         2.9          1.4         0.2 setosa 
10          4.9         3.1          1.5         0.1 setosa 
# … with 140 more rows
# ℹ Use `print(n = ...)` to see more rows
…
Figure 5. Displaying continuous variable with mpg.

cut_width function

Display how the histogram was made

For iris dataset,

iris.updated %>% 
count(cut_width(Sepal.Length, 0.1))

# A tibble: 35 × 2
   `cut_width(Sepal.Length, 0.1)`     n
   <fct>                          <int>
 1 [4.25,4.35]                        1
 2 (4.35,4.45]                        3
 3 (4.45,4.55]                        1
 4 (4.55,4.65]                        4
 5 (4.65,4.75]                        2
 6 (4.75,4.85]                        5
 7 (4.85,4.95]                        6
 8 (4.95,5.05]                       10
 9 (5.05,5.15]                        9
10 (5.15,5.25]                        4
# … with 25 more rows
# ℹ Use `print(n = ...)` to see more rows
…
Note here that the numbers correspond to the binwidth used in each histogram

Filter function

smaller dataset by filtering. The filter function evaluates a condition inside the bracket.

mpg %>% 
  filter(cty >20)

# A tibble: 45 × 11
   manufacturer model  displ  year   cyl trans     drv     cty   hwy fl    class
   <chr>        <chr>  <dbl> <int> <int> <chr>     <chr> <int> <int> <chr> <chr>
 1 audi         a4       1.8  1999     4 manual(m… f        21    29 p     comp…
 2 audi         a4       2    2008     4 auto(av)  f        21    30 p     comp…
 3 chevrolet    malibu   2.4  2008     4 auto(l4)  f        22    30 r     mids…
 4 honda        civic    1.6  1999     4 manual(m… f        28    33 r     subc…
 5 honda        civic    1.6  1999     4 auto(l4)  f        24    32 r     subc…
 6 honda        civic    1.6  1999     4 manual(m… f        25    32 r     subc…
 7 honda        civic    1.6  1999     4 manual(m… f        23    29 p     subc…
 8 honda        civic    1.6  1999     4 auto(l4)  f        24    32 r     subc…
 9 honda        civic    1.8  2008     4 manual(m… f        26    34 r     subc…
10 honda        civic    1.8  2008     4 auto(l5)  f        25    36 r     subc…
# … with 35 more rows
# ℹ Use `print(n = ...)` to see more rows

mpg.sub<- mpg %>%
  filter(cty >20)

iris.updated %>%
  filter(Petal.Width > 1)

# A tibble: 93 × 5
   Sepal.Length Sepal.Width Petal.Length Petal.Width Species   
          <dbl>       <dbl>        <dbl>       <dbl> <fct>     
 1          7           3.2          4.7         1.4 versicolor
 2          6.4         3.2          4.5         1.5 versicolor
 3          6.9         3.1          4.9         1.5 versicolor
 4          5.5         2.3          4           1.3 versicolor
 5          6.5         2.8          4.6         1.5 versicolor
 6          5.7         2.8          4.5         1.3 versicolor
 7          6.3         3.3          4.7         1.6 versicolor
 8          6.6         2.9          4.6         1.3 versicolor
 9          5.2         2.7          3.9         1.4 versicolor
10          5.9         3            4.2         1.5 versicolor
# … with 83 more rows
# ℹ Use `print(n = ...)` to see more rows
…
Figure 8. Expanding the x-y coordinates,mpg.

Select function

Used for subsetting a dataset, by selecting column names,

mpg.filtered1 <- mpg %>% 
  filter(cty < 10 | cty > 15) %>% 
  select(manufacturer,cty, displ)

mpg.filtered1

# A tibble: 142 × 3
   manufacturer   cty displ
   <chr>        <int> <dbl>
 1 audi            18   1.8
 2 audi            21   1.8
 3 audi            20   2  
 4 audi            21   2  
 5 audi            16   2.8
 6 audi            18   2.8
 7 audi            18   3.1
 8 audi            18   1.8
 9 audi            16   1.8
10 audi            20   2  
# … with 132 more rows
# ℹ Use `print(n = ...)` to see more rows

Arrange function

Sorts in ascending order by the column name provided,

mpg.filtered2.asc <- mpg %>% 
  filter(cty < 10 | cty > 15) %>% 
  select(manufacturer,cty, displ) %>%
  arrange(cty)

mpg.filtered2.asc

# A tibble: 142 × 3
   manufacturer   cty displ
   <chr>        <int> <dbl>
 1 dodge            9   4.7
 2 dodge            9   4.7
 3 dodge            9   4.7
 4 dodge            9   4.7
 5 jeep             9   4.7
 6 audi            16   2.8
 7 audi            16   1.8
 8 audi            16   4.2
 9 chevrolet       16   5.7
10 chevrolet       16   6.2
# … with 132 more rows
# ℹ Use `print(n = ...)` to see more rows

Using arrange to sort in descending order, use the function across within arrange.

Note remember you can nest the functions within another function.

mpg.filtered2.dsc <- mpg %>% 
  filter(cty < 10 | cty > 15) %>% 
  select(manufacturer,cty, displ) %>%
  arrange(across(cty,desc))

mpg.filtered2.dsc

# A tibble: 142 × 3
   manufacturer   cty displ
   <chr>        <int> <dbl>
 1 volkswagen      35   1.9
 2 volkswagen      33   1.9
 3 volkswagen      29   1.9
 4 honda           28   1.6
 5 toyota          28   1.8
 6 honda           26   1.8
 7 toyota          26   1.8
 8 toyota          26   1.8
 9 honda           25   1.6
10 honda           25   1.8
# … with 132 more rows
# ℹ Use `print(n = ...)` to see more rows

Mutate function

Used for adding more columns using a condition. Note here that the notation for

 ifelse(CONDITION, VALUE_IF_TRUE, VALUE_IF_FALSE)

# Mutate - add more columns
mpg.filtered3 <- mpg.filtered2.asc %>% 
  mutate(newcol = ifelse(cty < 10, NA, 0))

mpg.filtered3

# A tibble: 142 × 4
   manufacturer   cty displ newcol
   <chr>        <int> <dbl>  <dbl>
 1 dodge            9   4.7     NA
 2 dodge            9   4.7     NA
 3 dodge            9   4.7     NA
 4 dodge            9   4.7     NA
 5 jeep             9   4.7     NA
 6 audi            16   2.8      0
 7 audi            16   1.8      0
 8 audi            16   4.2      0
 9 chevrolet       16   5.7      0
10 chevrolet       16   6.2      0
# … with 132 more rows
# ℹ Use `print(n = ...)` to see more rows

You can add multiple columns using mutate function,

iris.updated %>%
  mutate(order.name="Asparagales",
         height=Sepal.Length*5)

# A tibble: 150 × 7
   Sepal.Length Sepal.Width Petal.Length Petal.Width Species order.name  height
          <dbl>       <dbl>        <dbl>       <dbl> <fct>   <chr>        <dbl>
 1          5.1         3.5          1.4         0.2 setosa  Asparagales   25.5
 2          4.9         3            1.4         0.2 setosa  Asparagales   24.5
 3          4.7         3.2          1.3         0.2 setosa  Asparagales   23.5
 4          4.6         3.1          1.5         0.2 setosa  Asparagales   23  
 5          5           3.6          1.4         0.2 setosa  Asparagales   25  
 6          5.4         3.9          1.7         0.4 setosa  Asparagales   27  
 7          4.6         3.4          1.4         0.3 setosa  Asparagales   23  
 8          5           3.4          1.5         0.2 setosa  Asparagales   25  
 9          4.4         2.9          1.4         0.2 setosa  Asparagales   22  
10          4.9         3.1          1.5         0.1 setosa  Asparagales   24.5
# … with 140 more rows
# ℹ Use `print(n = ...)` to see more rows
…
